pdr.id,pdr.obj_id,pdr.snaim,pdr.naim,pdr.lim
1,2,Цех02,Цех радиоизмерительной аппаратуры № 2,35.00
2,2,Цех07,Намоточный цех № 7,40.00
3,2,Цех15,Цех изделий производственно-технического назначения № 15,40.00
4,2,ЭлКо,"ООО ""Электронные компоненты-НН""",140.00
5,2,ЭТП,"ООО ""ЭнергоТехПласт""",250.00
6,2,Микроник,"ООО ""Микроник""",75.00
7,2,ННИИРТ,Нижегородский научно-исследовательский институт радиотехники,100.00
8,2,ИнстрПлюс,"ООО ""Инструмент-Плюс""",75.00
9,2,ОКиК,Отдел комплектации и кооперации,30.00
10,2,ЛТИ,Лаборатория технических измерений,7.00
11,2,Цех27,Цех микроэлектроники № 27,20.00
12,2,ОГТ,Отдел главного технолога,5.00
13,2,ОТД,Отдел технической документации,15.00
14,2,ЭМО,Энергомеханический отдел,150.00
15,2,Котельная,Котельная,495.00
16,2,ОчистСоор,Очистные сооружения,20.00
17,2,Ремстрой,"ООО ""РемСтрой-НН""",25.00
18,2,Водооборот,Водооборот,45.00
19,2,Компр,Компрессоры,120.00
20,2,Цех06,Механический цех № 6,140.00
21,2,Цех12,Цех покрытий №12,130.00
22,2,Промплощадка,"Промплощадка ""Митино""",10.00
23,2,Комплекс,"ООО ""СТК-Комплекс""",45.00
24,2,Баязет,"ООО ""Баязет""",10.00
25,2,Игнатьев,"ИП ""Игнатьев""",50.00
26,2,ВВИК,Волго-Вятская инвестиционная корпорация,15.00
27,2,Прочие,"Прочие, не вошедшие в подразделения",20.00
